yearMonth,ProductID,ProductName,salesAmount
1996-10,17,Alice Mutton,3057.6
1996-10,18,Carnarvon Tigers,3000.0
1996-10,2,Chang,851.1999999999999
1996-10,39,Chartreuse verte,57.6
1996-10,4,Chef Anton's Cajun Seasoning,915.2
1996-10,38,Cte de Blaye,4216.0
1996-10,58,Escargots de Bourgogne,318.0
1996-10,52,Filo Mix,156.8
1996-10,71,Flotemysost,1204.0
1996-10,33,Geitost,16.0
1996-10,15,Genen Shouyu,62.0
1996-10,56,Gnocchi di nonna Alice,364.8
1996-10,31,Gorgonzola Telino,850.0
1996-10,6,Grandma's Boysenberry Spread,120.0
1996-10,37,Gravad lax,582.4
1996-10,26,Gumbr Gummibrchen,1842.6
1996-10,36,Inlagd Sill,912.0
1996-10,43,Ipoh Coffee,1472.0
1996-10,41,Jack's New England Clam Chowder,246.4
1996-10,13,Konbu,57.59999999999999
1996-10,76,Lakkalikri,734.4
1996-10,65,Louisiana Fiery Hot Pepper Sauce,672.0
1996-10,51,Manjimup Dried Apples,2035.2
1996-10,32,Mascarpone Fabioli,153.6
1996-10,72,Mozzarella di Giovanni,2502.0
1996-10,30,Nord-Ost Matjeshering,1200.6
1996-10,25,NuNuCa Nu-Nougat-Creme,44.8
1996-10,16,Pavlova,291.9
1996-10,55,Pt chinois,768.0
1996-10,11,Queso Cabrales,840.0
1996-10,59,Raclette Courdavault,2552.0
1996-10,57,Ravioli Angelo,249.6
1996-10,75,Rhnbru Klosterbier,310.0
1996-10,28,Rssle Sauerkraut,509.6
1996-10,68,Scottish Longbreads,240.0
1996-10,42,Singaporean Hokkien Fried Mee,112.0
1996-10,21,Sir Rodney's Scones,80.0
1996-10,46,Spegesild,288.0
1996-10,35,Steeleye Stout,1152.0
1996-10,62,Tarte au sucre,1103.2
1996-10,19,Teatime Chocolate Biscuits,73.0
1996-10,14,Tofu,353.4
1996-10,54,Tourtire,88.5
1996-10,23,Tunnbrd,288.0
1996-10,63,Vegie-spread,2808.0
1996-10,64,Wimmers gute Semmelkndel,1330.0
1996-10,47,Zaanse koeken,121.6
1996-11,17,Alice Mutton,1123.2
1996-11,40,Boston Crab Meat,58.8
1996-11,60,Camembert Pierrot,3889.6
1996-11,1,Chai,388.8
1996-11,39,Chartreuse verte,1497.6
1996-11,4,Chef Anton's Cajun Seasoning,616.0
1996-11,38,Cte de Blaye,16864.0
1996-11,71,Flotemysost,86.0
1996-11,56,Gnocchi di nonna Alice,608.0
1996-11,31,Gorgonzola Telino,1200.0
1996-11,24,Guaran Fantstica,162.0
1996-11,69,Gudbrandsdalsost,1958.4
1996-11,44,Gula Malacca,1193.5
1996-11,26,Gumbr Gummibrchen,398.4
1996-11,10,Ikura,744.0
1996-11,36,Inlagd Sill,304.0
1996-11,41,Jack's New England Clam Chowder,100.1
1996-11,76,Lakkalikri,172.8
1996-11,65,Louisiana Fiery Hot Pepper Sauce,504.0
1996-11,51,Manjimup Dried Apples,848.0
1996-11,49,Maxilaku,560.0
1996-11,8,Northwoods Cranberry Sauce,4480.0
1996-11,25,NuNuCa Nu-Nougat-Creme,672.0
1996-11,77,Original Frankfurter grne Soe,124.8
1996-11,16,Pavlova,778.4
1996-11,55,Pt chinois,230.4
1996-11,11,Queso Cabrales,604.8000000000001
1996-11,57,Ravioli Angelo,780.0
1996-11,75,Rhnbru Klosterbier,111.6
1996-11,28,Rssle Sauerkraut,1565.2
1996-11,34,Sasquatch Ale,515.2
1996-11,42,Singaporean Hokkien Fried Mee,100.8
1996-11,21,Sir Rodney's Scones,40.0
1996-11,19,Teatime Chocolate Biscuits,584.0
1996-11,29,Thringer Rostbratwurst,3861.0
1996-11,54,Tourtire,672.6000000000001
1996-11,23,Tunnbrd,180.0
1996-11,50,Valkoinen suklaa,195.0
1996-11,64,Wimmers gute Semmelkndel,931.0
